#GuiTools.Options
$MMS.Network_Connection
%en Connections
$MMS.Network_Connection/Connections
%en Tabulate Connections
$MMS.Network_Connection/Open
%en Open Connnection
$MMS.Network_ObtainRepository
%en Obtain Repository
$MMS.Network_DownloadSamples
%en Download Samples
$MMS.Network_OpenSample
%en Open Sample
