#GuiTools.Options
$MMS.MainObject_Save_AtFile_Heavy
%en Save at File (with Data)
$MMS.MainObject_Save_Heavy
%en Save (with Data)
$MMS.MainObject_Save_AtRepository_Heavy
%en Save at Repository (with Data)
$MMS.MainObject_Duplicate
%en Duplicate
$MMS.MainObject_Duplicate_Group
%en Duplicate
$MMS.MainObject_Delete
%en Delete
$MMS.MainObject_Delete_Group
%en Delete
